EESchema Schematic File Version 2
LIBS:power
LIBS:device
LIBS:transistors
LIBS:conn
LIBS:linear
LIBS:regul
LIBS:74xx
LIBS:cmos4000
LIBS:adc-dac
LIBS:memory
LIBS:xilinx
LIBS:microcontrollers
LIBS:dsp
LIBS:microchip
LIBS:analog_switches
LIBS:motorola
LIBS:texas
LIBS:intel
LIBS:audio
LIBS:interface
LIBS:digital-audio
LIBS:philips
LIBS:display
LIBS:cypress
LIBS:siliconi
LIBS:opto
LIBS:atmel
LIBS:contrib
LIBS:valves
LIBS:EMI_GLOVES_LIB
LIBS:EMI_GLOVES-cache
EELAYER 25 0
EELAYER END
$Descr A4 11693 8268
encoding utf-8
Sheet 1 1
Title ""
Date ""
Rev ""
Comp ""
Comment1 ""
Comment2 ""
Comment3 ""
Comment4 ""
$EndDescr
$Comp
L WeMos_mini U1
U 1 1 5B042195
P 7800 4400
F 0 "U1" H 7800 4900 60  0000 C CNN
F 1 "WeMos_mini" H 7800 3900 60  0000 C CNN
F 2 "footprintsEMI:D1_mini_board" H 8350 3700 60  0001 C CNN
F 3 "" H 8350 3700 60  0000 C CNN
	1    7800 4400
	1    0    0    -1  
$EndComp
$Comp
L MPU-6050 U3
U 1 1 5B04225A
P 2850 4100
F 0 "U3" H 2350 4550 60  0000 L CNN
F 1 "MPU-6050" H 2350 3700 60  0000 L CNN
F 2 "footprintsEMI:MPU6050" H 7850 1300 60  0001 C CNN
F 3 "" H 7850 1300 60  0000 C CNN
	1    2850 4100
	0    1    1    0   
$EndComp
$Comp
L +5V #PWR01
U 1 1 5B042750
P 6600 4050
F 0 "#PWR01" H 6600 3900 50  0001 C CNN
F 1 "+5V" H 6600 4190 50  0000 C CNN
F 2 "" H 6600 4050 50  0001 C CNN
F 3 "" H 6600 4050 50  0001 C CNN
	1    6600 4050
	1    0    0    -1  
$EndComp
$Comp
L GND #PWR02
U 1 1 5B04276C
P 6600 4150
F 0 "#PWR02" H 6600 3900 50  0001 C CNN
F 1 "GND" H 6600 4000 50  0000 C CNN
F 2 "" H 6600 4150 50  0001 C CNN
F 3 "" H 6600 4150 50  0001 C CNN
	1    6600 4150
	1    0    0    -1  
$EndComp
Wire Wire Line
	6600 4050 7300 4050
Wire Wire Line
	6600 4150 7300 4150
$Comp
L OLED_SCREEN U5
U 1 1 5B042BA3
P 3100 6300
F 0 "U5" H 4100 5800 60  0000 C CNN
F 1 "OLED_SCREEN" H 4100 5800 60  0000 C CNN
F 2 "footprintsEMI:OLED_SCREEN" H 4100 5800 60  0001 C CNN
F 3 "" H 4100 5800 60  0001 C CNN
	1    3100 6300
	0    1    1    0   
$EndComp
$Comp
L SWITCH U2
U 1 1 5B043398
P 3250 2800
F 0 "U2" H 3250 2800 60  0000 C CNN
F 1 "SWITCH" H 3250 2800 60  0000 C CNN
F 2 "footprintsEMI:SW" H 3250 2800 60  0001 C CNN
F 3 "" H 3250 2800 60  0001 C CNN
	1    3250 2800
	1    0    0    -1  
$EndComp
$Comp
L GND #PWR03
U 1 1 5B0433D4
P 3750 3150
F 0 "#PWR03" H 3750 2900 50  0001 C CNN
F 1 "GND" H 3750 3000 50  0000 C CNN
F 2 "" H 3750 3150 50  0001 C CNN
F 3 "" H 3750 3150 50  0001 C CNN
	1    3750 3150
	1    0    0    -1  
$EndComp
$Comp
L GND #PWR04
U 1 1 5B0433EE
P 4200 3900
F 0 "#PWR04" H 4200 3650 50  0001 C CNN
F 1 "GND" H 4200 3750 50  0000 C CNN
F 2 "" H 4200 3900 50  0001 C CNN
F 3 "" H 4200 3900 50  0001 C CNN
	1    4200 3900
	1    0    0    -1  
$EndComp
$Comp
L GND #PWR05
U 1 1 5B043408
P 4200 5000
F 0 "#PWR05" H 4200 4750 50  0001 C CNN
F 1 "GND" H 4200 4850 50  0000 C CNN
F 2 "" H 4200 5000 50  0001 C CNN
F 3 "" H 4200 5000 50  0001 C CNN
	1    4200 5000
	1    0    0    -1  
$EndComp
$Comp
L GND #PWR06
U 1 1 5B043422
P 4100 6250
F 0 "#PWR06" H 4100 6000 50  0001 C CNN
F 1 "GND" H 4100 6100 50  0000 C CNN
F 2 "" H 4100 6250 50  0001 C CNN
F 3 "" H 4100 6250 50  0001 C CNN
	1    4100 6250
	1    0    0    -1  
$EndComp
$Comp
L VL53L0XMINIM U4
U 1 1 5B043918
P 2900 5300
F 0 "U4" H 3200 5850 60  0000 C CNN
F 1 "VL53L0XMINIM" H 2700 5850 60  0000 C CNN
F 2 "footprintsEMI:VL53L0X" H 2950 5250 60  0001 C CNN
F 3 "" H 2950 5250 60  0000 C CNN
	1    2900 5300
	1    0    0    -1  
$EndComp
$Comp
L +5V #PWR07
U 1 1 5B043961
P 4100 6100
F 0 "#PWR07" H 4100 5950 50  0001 C CNN
F 1 "+5V" H 4100 6240 50  0000 C CNN
F 2 "" H 4100 6100 50  0001 C CNN
F 3 "" H 4100 6100 50  0001 C CNN
	1    4100 6100
	1    0    0    -1  
$EndComp
$Comp
L +5V #PWR08
U 1 1 5B04397B
P 4200 4900
F 0 "#PWR08" H 4200 4750 50  0001 C CNN
F 1 "+5V" H 4200 5040 50  0000 C CNN
F 2 "" H 4200 4900 50  0001 C CNN
F 3 "" H 4200 4900 50  0001 C CNN
	1    4200 4900
	1    0    0    -1  
$EndComp
$Comp
L +5V #PWR09
U 1 1 5B043995
P 4200 3800
F 0 "#PWR09" H 4200 3650 50  0001 C CNN
F 1 "+5V" H 4200 3940 50  0000 C CNN
F 2 "" H 4200 3800 50  0001 C CNN
F 3 "" H 4200 3800 50  0001 C CNN
	1    4200 3800
	1    0    0    -1  
$EndComp
Wire Wire Line
	3350 3150 3750 3150
Wire Wire Line
	3350 3300 3550 3300
Wire Wire Line
	3550 3300 3550 3400
Wire Wire Line
	3550 3400 6450 3400
Wire Wire Line
	6450 3400 6450 4350
Wire Wire Line
	6450 4350 7300 4350
Wire Wire Line
	3350 3800 4200 3800
Wire Wire Line
	3350 3900 4200 3900
Wire Wire Line
	3500 4900 4200 4900
Wire Wire Line
	3500 5000 4200 5000
Wire Wire Line
	3500 6100 4100 6100
Wire Wire Line
	3500 6250 4100 6250
Wire Wire Line
	3350 4500 6650 4500
Wire Wire Line
	6650 4500 6650 5100
Wire Wire Line
	6650 5100 8650 5100
Wire Wire Line
	8650 5100 8650 4150
Wire Wire Line
	8650 4150 8300 4150
Wire Wire Line
	3350 4000 3900 4000
Wire Wire Line
	3900 4000 3900 4550
Wire Wire Line
	3900 4550 7300 4550
Wire Wire Line
	3500 5100 5050 5100
Wire Wire Line
	5050 4550 5050 6400
Connection ~ 5050 4550
Wire Wire Line
	5050 6400 3500 6400
Connection ~ 5050 5100
Wire Wire Line
	3350 4100 6000 4100
Wire Wire Line
	6000 4100 6000 4450
Wire Wire Line
	6000 4450 7300 4450
Wire Wire Line
	5400 4100 5400 6550
Wire Wire Line
	5400 5200 3500 5200
Connection ~ 5400 4100
Wire Wire Line
	5400 6550 3500 6550
Connection ~ 5400 5200
NoConn ~ 3350 3000
NoConn ~ 3500 5300
NoConn ~ 3500 5400
NoConn ~ 3350 4200
NoConn ~ 3350 4300
NoConn ~ 3350 4400
NoConn ~ 7300 4650
NoConn ~ 7300 4750
NoConn ~ 7300 4250
NoConn ~ 8300 4050
NoConn ~ 8300 4250
NoConn ~ 8300 4350
NoConn ~ 8300 4450
NoConn ~ 8300 4550
NoConn ~ 8300 4650
NoConn ~ 8300 4750
$EndSCHEMATC
