(module OLED_SCREEN (layer F.Cu) (tedit 5B0565DA)
  (fp_text reference REF** (at 0.08 5.92) (layer F.SilkS)
    (effects (font (size 1 1) (thickness 0.15)))
  )
  (fp_text value OLED_SCREEN (at 0.08 3.85) (layer F.Fab)
    (effects (font (size 1 1) (thickness 0.15)))
  )
  (fp_circle (center -11.5 23.95) (end -11.5 24.95) (layer F.SilkS) (width 0.15))
  (fp_circle (center 11.5 23.95) (end 11.5 24.95) (layer F.SilkS) (width 0.15))
  (fp_circle (center 11.5 0.65) (end 11.5 1.65) (layer F.SilkS) (width 0.15))
  (fp_circle (center -11.5 0.65) (end -11.5 1.65) (layer F.SilkS) (width 0.15))
  (fp_line (start -13.7 -1.55) (end -13.7 26.15) (layer F.SilkS) (width 0.15))
  (fp_line (start -13.706 26.156) (end 13.694 26.156) (layer F.SilkS) (width 0.15))
  (fp_line (start -13.7 -1.55) (end 13.7 -1.55) (layer F.SilkS) (width 0.15))
  (fp_line (start 13.7 -1.55) (end 13.7 26.15) (layer F.SilkS) (width 0.15))
  (pad 1 thru_hole circle (at -3.809 0.01) (size 1.524 1.524) (drill 0.762) (layers *.Cu *.Mask))
  (pad 2 thru_hole circle (at -1.269 0.01) (size 1.524 1.524) (drill 0.762) (layers *.Cu *.Mask))
  (pad 3 thru_hole circle (at 1.271 0.01) (size 1.524 1.524) (drill 0.762) (layers *.Cu *.Mask))
  (pad 4 thru_hole circle (at 3.811 0.01) (size 1.524 1.524) (drill 0.762) (layers *.Cu *.Mask))
)
